Division,WeightClassKg,Place,Name,Team,BodyweightKg,Best3SquatKg,Best3BenchKg,Best3DeadliftKg,TotalKg,Equipment,Event,Sex
Boys,51.71,1,Richie Garza,West Columbia,48.81,131.54,65.77,145.15,342.46,Single-ply,SBD,M
Boys,51.71,2,Octavio Vargas,Hamshire-Fannett,49.17,136.08,63.5,142.88,342.46,Single-ply,SBD,M
Boys,51.71,3,Lucas Collins,Jasper,51.07,120.2,65.77,147.42,333.39,Single-ply,SBD,M
Boys,51.71,4,Jake Potter,Bridge City,50.44,115.67,68.04,127.01,310.71,Single-ply,SBD,M
Boys,51.71,5,Keithon Glenn,Jasper,49.71,106.59,65.77,131.54,303.91,Single-ply,SBD,M
Boys,51.71,6,Dominic Limbrick,Jasper,50.53,92.99,63.5,138.35,294.84,Single-ply,SBD,M
Boys,51.71,7,Shelby Dickerson #1,Jasper,46.54,61.23,52.16,102.06,215.46,Single-ply,SBD,M
Boys,51.71,8,Gavin Jackson,Orangefield,44.27,83.91,49.9,79.38,213.19,Single-ply,SBD,M
Boys,51.71,9,Austin Pruett,Shepherd,45,68.04,29.48,74.84,172.37,Single-ply,SBD,M
Boys,,NS,Brandon Hines,Stafford,,,,,,Single-ply,SBD,M
Boys,,NS,Justin Garner,Sweeny,,,,,,Single-ply,SBD,M
Boys,55.79,1,Jonathan Cardenas,Freeport Brazosport,55.61,206.38,113.4,208.65,528.44,Single-ply,SBD,M
Boys,55.79,2,Jordan Trevino,Bay City,54.25,138.35,70.31,161.03,369.68,Single-ply,SBD,M
Boys,55.79,3,DeAndre Limbrick,Jasper,53.8,131.54,77.11,158.76,367.41,Single-ply,SBD,M
Boys,55.79,4,David Withers,Shepherd,55.79,136.08,61.23,136.08,333.39,Single-ply,SBD,M
Boys,55.79,5,Christian Oller,West Columbia,54.7,113.4,74.84,127.01,315.25,Single-ply,SBD,M
Boys,55.79,6,Alex Williams #3,Bridge City,53.34,111.13,83.91,111.13,306.17,Single-ply,SBD,M
Boys,55.79,7,Preston Spoerle,Cleveland Tarkington,55.61,92.99,61.23,113.4,267.62,Single-ply,SBD,M
Boys,55.79,8,Seth Korenek,Bay City,54.07,97.52,61.23,106.59,265.35,Single-ply,SBD,M
Boys,55.79,9,Angel Gomez,Cleveland,55.61,79.38,56.7,106.59,242.67,Single-ply,SBD,M
Boys,,NS,Chris Gobel,Liberty,,,,,,Single-ply,SBD,M
Boys,59.87,1,Zane Havel,Bay City,59.24,183.7,97.52,170.1,451.32,Single-ply,SBD,M
Boys,59.87,2,Orlando Moreno,Bay City,58.79,172.37,102.06,172.37,446.79,Single-ply,SBD,M
Boys,59.87,3,Noah Courvelle,Shepherd,58.42,170.1,102.06,172.37,444.52,Single-ply,SBD,M
Boys,59.87,4,Clay Coogler,Shepherd,59.69,163.29,83.91,147.42,394.63,Single-ply,SBD,M
Boys,59.87,5,Payton Samuel,Jasper,59.24,145.15,83.91,156.49,385.55,Single-ply,SBD,M
Boys,59.87,6,Clay Frick,Sweeny,59.24,147.42,77.11,151.95,376.48,Single-ply,SBD,M
Boys,59.87,7,Chase McCain,Sour Lake Hardin-Jefferson,59.06,124.74,92.99,140.61,358.34,Single-ply,SBD,M
Boys,59.87,8,Logan Postert,Sour Lake Hardin-Jefferson,58.79,129.27,74.84,136.08,340.19,Single-ply,SBD,M
Boys,59.87,9,Michael Vasquez,Bay City,58.24,113.4,74.84,142.88,331.12,Single-ply,SBD,M
Boys,59.87,DQ,Brennan Pott,Cleveland Tarkington,58.33,,,,,Single-ply,SBD,M
Boys,,NS,David Triller,Needville,,,,,,Single-ply,SBD,M
Boys,67.13,1,Hunter Angelo,Orange Little Cypress-Mauriceville,64.68,206.38,124.74,213.19,544.31,Single-ply,SBD,M
Boys,67.13,2,Eric Perez,Cleveland,66.95,183.7,102.06,217.72,503.49,Single-ply,SBD,M
Boys,67.13,3,Jacob Vacek,Needville,65.63,204.12,106.59,172.37,483.08,Single-ply,SBD,M
Boys,67.13,4,Jacob Rhodes,Needville,66.04,183.7,99.79,197.31,480.81,Single-ply,SBD,M
Boys,67.13,5,Jermaine Ellis,Freeport Brazosport,66.04,206.38,90.72,174.63,471.74,Single-ply,SBD,M
Boys,67.13,6,Dylan Knight,Sweeny,66.41,172.37,108.86,183.7,464.93,Single-ply,SBD,M
Boys,67.13,7,Luke Collins,Jasper,62.41,170.1,111.13,174.63,455.86,Single-ply,SBD,M
Boys,67.13,8,Caleb Jackson,Huffman Hargrave,66.04,158.76,106.59,183.7,449.06,Single-ply,SBD,M
Boys,67.13,9,Jayln Taylor,Stafford,65.14,158.76,102.06,176.9,437.72,Single-ply,SBD,M
Boys,67.13,10,Jacob Gulliot,Orangefield,66.5,188.24,83.91,156.49,428.64,Single-ply,SBD,M
Boys,67.13,11,Jacob Deplois,Cleveland Tarkington,64.14,154.22,74.84,183.7,412.77,Single-ply,SBD,M
Boys,67.13,DQ,Zach Jenkins,Shepherd,66.95,,,,,Single-ply,SBD,M
Boys,74.84,1,Jerkarion Simmons,Jasper,74.48,254.01,172.37,283.5,709.87,Single-ply,SBD,M
Boys,74.84,2,Colton Boatright,Shepherd,74.21,244.94,163.29,238.14,646.37,Single-ply,SBD,M
Boys,74.84,3,Adam Smith,Bay City,73.66,219.99,115.67,204.12,539.77,Single-ply,SBD,M
Boys,74.84,4,Jonathan Pesina,Bay City,72.39,213.19,127.01,192.78,532.97,Single-ply,SBD,M
Boys,74.84,5,James Harrison #3,Shepherd,74.12,201.85,108.86,208.65,519.36,Single-ply,SBD,M
Boys,74.84,6,Ian Palermo,Bridge City,74.66,188.24,111.13,217.72,517.1,Single-ply,SBD,M
Boys,74.84,7,Tristan Bigler,Bridge City,74.57,181.44,99.79,226.8,508.02,Single-ply,SBD,M
Boys,74.84,8,Fabian Salazar,Cleveland,71.49,199.58,113.4,188.24,501.22,Single-ply,SBD,M
Boys,74.84,9,Tyler Tran,Bridge City,71.94,190.51,106.59,201.85,498.95,Single-ply,SBD,M
Boys,74.84,10,Trevor Howard,Cleveland Tarkington,72.85,174.63,88.45,199.58,462.66,Single-ply,SBD,M
Boys,74.84,DQ,Michael McBroom,West Columbia,73.26,183.7,113.4,,,Single-ply,SBD,M
Boys,74.84,DQ,Devonte Stafford,Freeport Brazosport,69.67,190.51,,,,Single-ply,SBD,M
Boys,82.1,1,Kolbi Foster,Sweeny,80.56,274.42,120.2,251.74,646.37,Single-ply,SBD,M
Boys,82.1,2,Keyshawn Holman,West Orange-Stark,80.1,217.72,136.08,242.67,596.47,Single-ply,SBD,M
Boys,82.1,3,Quade Miller,Needville,80.92,210.92,140.61,215.46,566.99,Single-ply,SBD,M
Boys,82.1,4,Ethan McKay,Orange Little Cypress-Mauriceville,79.02,219.99,115.67,215.46,551.11,Single-ply,SBD,M
Boys,82.1,5,Brandon Cheves,Shepherd,74.93,222.26,129.27,195.04,546.58,Single-ply,SBD,M
Boys,82.1,6,Jared Burke,Shepherd,82.1,197.31,147.42,188.24,532.97,Single-ply,SBD,M
Boys,82.1,7,Keagan Landry,Bridge City,80.56,188.24,138.35,195.04,521.63,Single-ply,SBD,M
Boys,82.1,8,Luis Vasquez,Cleveland,80.56,199.58,133.81,183.7,517.1,Single-ply,SBD,M
Boys,82.1,9,Evan Green,Sweeny,80.83,199.58,108.86,204.12,512.56,Single-ply,SBD,M
Boys,82.1,10,Jerrick Spencer,West Orange-Stark,79.92,185.97,120.2,199.58,505.76,Single-ply,SBD,M
Boys,82.1,11,Victor Davila,Orange Little Cypress-Mauriceville,80.92,183.7,113.4,183.7,480.81,Single-ply,SBD,M
Boys,82.1,DQ,River Lucy,Liberty,81.37,226.8,,,,Single-ply,SBD,M
Boys,,NS,Dylan Reeves #1,Cleveland,,,,,,Single-ply,SBD,M
Boys,89.81,1,DeCorrian Holmes,Jasper,88.5,260.82,138.35,251.74,650.91,Single-ply,SBD,M
Boys,89.81,2,Tim Flores,Sour Lake Hardin-Jefferson,88.54,251.74,165.56,233.6,650.91,Single-ply,SBD,M
Boys,89.81,3,Austin Cartwright,Cleveland,89.18,244.94,129.27,249.48,623.69,Single-ply,SBD,M
Boys,89.81,4,Adam Altreche,Needville,88.63,272.16,136.08,208.65,616.89,Single-ply,SBD,M
Boys,89.81,5,Brady Byrd,Sweeny,88.27,215.46,117.93,219.99,553.38,Single-ply,SBD,M
Boys,89.81,6,Hunter McNair,Sour Lake Hardin-Jefferson,86.45,201.85,102.06,226.8,530.7,Single-ply,SBD,M
Boys,89.81,7,Trent Brown,Orange Little Cypress-Mauriceville,87.54,188.24,131.54,208.65,528.44,Single-ply,SBD,M
Boys,89.81,8,Tanner Stacy,Needville,83.73,204.12,138.35,181.44,523.9,Single-ply,SBD,M
Boys,89.81,9,Ken Savanah,Stafford,88.99,179.17,129.27,190.51,498.95,Single-ply,SBD,M
Boys,,NS,Charles Hester,Stafford,,,,,,Single-ply,SBD,M
Boys,,NS,Taylor Johnson #3,Huffman Hargrave,,,,,,Single-ply,SBD,M
Boys,,NS,Steve Reyes,Freeport Brazosport,,,,,,Single-ply,SBD,M
Boys,99.79,1,Jose Zaragoza,West Columbia,94.98,235.87,136.08,265.35,637.3,Single-ply,SBD,M
Boys,99.79,2,Jaime Morales,Cleveland,93.03,251.74,129.27,251.74,632.76,Single-ply,SBD,M
Boys,99.79,3,Danny Marquez,Freeport Brazosport,98.07,240.4,161.03,231.33,632.76,Single-ply,SBD,M
Boys,99.79,4,Alex Reed,Orange Little Cypress-Mauriceville,89.99,274.42,136.08,219.99,630.49,Single-ply,SBD,M
Boys,99.79,5,Jamison Thomas,Bridge City,92.62,197.31,133.81,247.21,578.33,Single-ply,SBD,M
Boys,99.79,6,Paul Ivory,West Orange-Stark,98.52,217.72,122.47,226.8,566.99,Single-ply,SBD,M
Boys,99.79,7,Sammy Romero,Sweeny,99.06,204.12,131.54,204.12,539.77,Single-ply,SBD,M
Boys,99.79,8,Isaiah Garcia,Shepherd,94.98,217.72,117.93,192.78,528.44,Single-ply,SBD,M
Boys,99.79,9,Ricardo Reyes,Needville,99.43,217.72,102.06,201.85,521.63,Single-ply,SBD,M
Boys,99.79,10,Ja'Qualan Coleman,West Orange-Stark,91.26,183.7,120.2,215.46,519.36,Single-ply,SBD,M
Boys,99.79,11,Ethan George,Stafford,90.81,195.04,117.93,197.31,510.29,Single-ply,SBD,M
Boys,109.77,1,Prince Flye,Bay City,103.24,263.08,181.44,258.55,703.07,Single-ply,SBD,M
Boys,109.77,2,Marquell Hale,Silsbee,107.32,263.08,158.76,249.48,671.32,Single-ply,SBD,M
Boys,109.77,3,Alvaro Andrade,Hamshire-Fannett,108.14,272.16,142.88,208.65,623.69,Single-ply,SBD,M
Boys,109.77,4,Daniel Grant,Silsbee,108.14,204.12,136.08,226.8,566.99,Single-ply,SBD,M
Boys,109.77,5,Kameron Hill,Stafford,100.33,190.51,136.08,204.12,530.7,Single-ply,SBD,M
Boys,109.77,6,Bobby Rash,West Orange-Stark,107.77,190.51,138.35,199.58,528.44,Single-ply,SBD,M
Boys,109.77,7,Santos Garcia,Bridge City,103.24,199.58,120.2,195.04,514.83,Single-ply,SBD,M
Boys,109.77,8,Jacob Jones,Cleveland Tarkington,106.78,183.7,122.47,195.04,501.22,Single-ply,SBD,M
Boys,109.77,9,Peyton McCormick,Cleveland Tarkington,107.77,188.24,111.13,181.44,480.81,Single-ply,SBD,M
Boys,109.77,DQ,Edrick Adams,Jasper,101.24,,,,,Single-ply,SBD,M
Boys,,NS,Antonio Williams,Freeport Brazosport,,,,,,Single-ply,SBD,M
Boys,124.74,1,Trajan Williams,Jasper,118.39,254.01,158.76,294.84,707.6,Single-ply,SBD,M
Boys,124.74,2,Grant LaCour,Orange Little Cypress-Mauriceville,117.57,238.14,142.88,242.67,623.69,Single-ply,SBD,M
Boys,124.74,3,Seth Green,Bridge City,123.56,244.94,147.42,229.06,621.42,Single-ply,SBD,M
Boys,124.74,4,Raul Gonzales,Liberty,118.93,240.4,151.95,226.8,619.15,Single-ply,SBD,M
Boys,124.74,5,Fidel Rodriguez,Bay City,113.67,238.14,161.03,215.46,614.62,Single-ply,SBD,M
Boys,124.74,6,Johnathan Hageon,Silsbee,121.38,233.6,129.27,238.14,601.01,Single-ply,SBD,M
Boys,124.74,7,Javien Times,Bay City,123.2,201.85,149.69,226.8,578.33,Single-ply,SBD,M
Boys,124.74,8,Jordan Parks,Orange Little Cypress-Mauriceville,118.93,204.12,149.69,204.12,557.92,Single-ply,SBD,M
Boys,124.74,9,Robert Wyckoff,Liberty,120.47,190.51,129.27,226.8,546.58,Single-ply,SBD,M
Boys,124.74,10,Clayton Martinez,Shepherd,110.77,217.72,97.52,208.65,523.9,Single-ply,SBD,M
Boys,124.74,DQ,Colt LeBleu,Orange Little Cypress-Mauriceville,117.57,249.48,,,,Single-ply,SBD,M
Boys,,NS,James Tousha,Liberty,,,,,,Single-ply,SBD,M
Boys,,NS,David McCoy,Sour Lake Hardin-Jefferson,,,,,,Single-ply,SBD,M
Boys,124.74+,1,Quinlan Beck,Shepherd,144.06,340.19,206.38,258.55,805.13,Single-ply,SBD,M
Boys,124.74+,2,Jeremiah Armstrong,Orange Little Cypress-Mauriceville,146.33,317.51,215.46,254.01,786.98,Single-ply,SBD,M
Boys,124.74+,3,Michael Willer,Sweeny,137.44,328.85,172.37,274.42,775.64,Single-ply,SBD,M
Boys,124.74+,4,Zach Taylor,Shepherd,127.91,308.44,174.63,226.8,709.87,Single-ply,SBD,M
Boys,124.74+,5,Tron Rideaux,Sour Lake Hardin-Jefferson,151.59,272.16,161.03,256.28,689.46,Single-ply,SBD,M
Boys,124.74+,6,Jonathan Woods #2,Sweeny,161.12,249.48,195.04,219.99,664.51,Single-ply,SBD,M
Boys,124.74+,7,Ryan Jones #6,Jasper,145.24,249.48,145.15,235.87,630.49,Single-ply,SBD,M
Boys,124.74+,8,Luke Padilla,Orangefield,166.88,226.8,163.29,226.8,616.89,Single-ply,SBD,M
Boys,124.74+,9,Moses Horn,Stafford,142.11,247.21,156.49,206.38,610.08,Single-ply,SBD,M
Boys,124.74+,10,Michael Jauer,Sour Lake Hardin-Jefferson,162.11,204.12,167.83,192.78,564.72,Single-ply,SBD,M
Boys,,NS,Clint Themis,Wharton,,,,,,Single-ply,SBD,M
Boys,124.74+,DQ,Merel Bunfill,Liberty,146.33,,,,,Single-ply,SBD,M
